Data Import & Cleaning (study1adults)
================
Adam Stone, PhD
09-18-2017

-   [Importing and Reshaping Data](#importing-and-reshaping-data)
-   [Participant Demographics](#participant-demographics)
-   [Save the dataset for further analysis](#save-the-dataset-for-further-analysis)

Importing and Reshaping Data
============================

Here we're going to import the data, remove dropped participants, and reshape the data so story and direction are grouping variables (and the dataset will be more tall than wide). Let's see ALL of our data first (scroll horizontally).

    ## # A tibble: 52 x 54
    ##       id hearing videogroup aoagroup languagegroup    maingroup selfrate
    ##    <int>   <chr>      <chr>    <chr>         <chr>        <chr>    <dbl>
    ##  1     1    Deaf    Group 1    Early      EarlyASL DeafEarlyASL        5
    ##  2     2    Deaf    Group 1    Early      EarlyASL DeafEarlyASL        5
    ##  3     3    Deaf    Group 2    Early      EarlyASL DeafEarlyASL        5
    ##  4     4    Deaf    Group 2    Early      EarlyASL DeafEarlyASL        5
    ##  5     5    Deaf    Group 1    Early      EarlyASL DeafEarlyASL        5
    ##  6     6    Deaf    Group 1    Early      EarlyASL DeafEarlyASL        5
    ##  7     7    Deaf    Group 1    Early      EarlyASL DeafEarlyASL        5
    ##  8     8    Deaf    Group 2    Early      EarlyASL DeafEarlyASL        5
    ##  9     9    Deaf    Group 2    Early       LateASL  DeafLateASL        5
    ## 10    10    Deaf    Group 1    Early       LateASL  DeafLateASL        5
    ## # ... with 42 more rows, and 47 more variables: age <dbl>, signyrs <dbl>,
    ## #   aoasl <int>, acc.fw1 <dbl>, acc.rv2 <dbl>, acc.fw3 <dbl>,
    ## #   acc.rv4 <dbl>, forehead.fw1 <dbl>, forehead.fw3 <dbl>,
    ## #   forehead.rv2 <dbl>, forehead.rv4 <dbl>, eyes.fw1 <dbl>,
    ## #   eyes.fw3 <dbl>, eyes.rv2 <dbl>, eyes.rv4 <dbl>, mouth.fw1 <dbl>,
    ## #   mouth.fw3 <dbl>, mouth.rv2 <dbl>, mouth.rv4 <dbl>, chin.fw1 <dbl>,
    ## #   chin.fw3 <dbl>, chin.rv2 <dbl>, chin.rv4 <dbl>, upperchest.fw1 <dbl>,
    ## #   upperchest.fw3 <dbl>, upperchest.rv2 <dbl>, upperchest.rv4 <dbl>,
    ## #   midchest.fw1 <dbl>, midchest.fw3 <dbl>, midchest.rv2 <dbl>,
…
Here's the final, "cleaned-up" dataset that we're going to use for all further analysis. Just the first 10 rows. Notice that there are now story and direction columns, and AOI-only columns, and each participant has 4 observation rows (one observation per story). So, more rows, less columns.

``` r
#kable(head(data, n=10)) %>% kable_styling(bootstrap_options = c("striped", "hover", "condensed"))
select(data,-participant)
```

    ## # A tibble: 176 x 25
    ##       id hearing videogroup aoagroup languagegroup    maingroup  video
    ##    <int>  <fctr>     <fctr>   <fctr>        <fctr>       <fctr> <fctr>
    ##  1     1    Deaf    Group 1    Early      EarlyASL DeafEarlyASL    fw1
    ##  2     1    Deaf    Group 1    Early      EarlyASL DeafEarlyASL    fw3
    ##  3     1    Deaf    Group 1    Early      EarlyASL DeafEarlyASL    rv2
    ##  4     1    Deaf    Group 1    Early      EarlyASL DeafEarlyASL    rv4
    ##  5     2    Deaf    Group 1    Early      EarlyASL DeafEarlyASL    fw1
    ##  6     2    Deaf    Group 1    Early      EarlyASL DeafEarlyASL    fw3
    ##  7     2    Deaf    Group 1    Early      EarlyASL DeafEarlyASL    rv2
    ##  8     2    Deaf    Group 1    Early      EarlyASL DeafEarlyASL    rv4
    ##  9     3    Deaf    Group 2    Early      EarlyASL DeafEarlyASL    fw1
    ## 10     3    Deaf    Group 2    Early      EarlyASL DeafEarlyASL    fw3
    ## # ... with 166 more rows, and 18 more variables: story <fctr>,
    ## #   direction <fctr>, age <dbl>, selfrate <dbl>, signyrs <dbl>,
    ## #   aoasl <int>, acc <dbl>, forehead <dbl>, eyes <dbl>, mouth <dbl>,
    ## #   chin <dbl>, upperchest <dbl>, midchest <dbl>, lowerchest <dbl>,
    ## #   belly <dbl>, left <dbl>, right <dbl>, total <dbl>
…
