…
Now that it's in the right format...it's ridiculously easy to get what we need. For example, here's the mean x and y coordinate for each story for each participant.

``` r
means <- rawdata %>%
  group_by(participant,media) %>%
  dplyr::summarize(x = mean(x,na.rm=TRUE),
            y = mean(y,na.rm=TRUE))
means
```

    ## # A tibble: 271 x 4
    ## # Groups:   participant [?]
    ##    participant                  media        x        y
    ##          <chr>                  <chr>    <dbl>    <dbl>
    ##  1        Adam          bears_forward 684.9977 389.2674
    ##  2        Adam    cinderella_reversed 692.4115 375.5225
    ##  3        Adam          midas_forward 687.0622 390.0083
    ##  4        Adam redridinghood_reversed 695.7886 384.0031
    ##  5    alicia 2         bears_reversed 678.1501 437.3332
    ##  6    alicia 2     cinderella_forward 690.3169 414.7603
    ##  7    alicia 2         midas_reversed 672.9260 393.8968
    ##  8    alicia 2  redridinghood_forward 707.9323 367.3785
    ##  9 Alicia Deaf         midas_reversed 688.1792 395.6458
    ## 10 Alicia Deaf  redridinghood_forward 700.9295 405.4189
    ## # ... with 261 more rows
…
