…
                     belly.rv4 = col_double(),
                     left.fw1 = col_double(),
                     left.fw3 = col_double(),
                     left.rv2 = col_double(),
                     left.rv4 = col_double(),
                     right.fw1 = col_double(),
                     right.fw3 = col_double(),
                     right.rv2 = col_double(),
                     right.rv4 = col_double()
                     )
)
data
```

    ## # A tibble: 52 x 55
    ##       id               participant hearing videogroup aoagroup
    ##    <int>                     <chr>   <chr>      <chr>    <chr>
    ##  1     1                   Jessika    Deaf    Group 1    Early
    ##  2     2                     Derek    Deaf    Group 1    Early
    ##  3     3              Vanessa_Deaf    Deaf    Group 2    Early
    ##  4     4                      Josh    Deaf    Group 2    Early
    ##  5     5                  Lynnette    Deaf    Group 1    Early
    ##  6     6 Laura P (missing stories)    Deaf    Group 1    Early
    ##  7     7                   Rebecca    Deaf    Group 1    Early
    ##  8     8                     Cathy    Deaf    Group 2    Early
    ##  9     9                   Crystal    Deaf    Group 2    Early
    ## 10    10                Chrissy G.    Deaf    Group 1    Early
    ## # ... with 42 more rows, and 50 more variables: languagegroup <chr>,
    ## #   maingroup <chr>, selfrate <dbl>, age <dbl>, signyrs <dbl>,
    ## #   aoasl <int>, acc.fw1 <dbl>, acc.rv2 <dbl>, acc.fw3 <dbl>,
    ## #   acc.rv4 <dbl>, forehead.fw1 <dbl>, forehead.fw3 <dbl>,
    ## #   forehead.rv2 <dbl>, forehead.rv4 <dbl>, eyes.fw1 <dbl>,
    ## #   eyes.fw3 <dbl>, eyes.rv2 <dbl>, eyes.rv4 <dbl>, mouth.fw1 <dbl>,
    ## #   mouth.fw3 <dbl>, mouth.rv2 <dbl>, mouth.rv4 <dbl>, chin.fw1 <dbl>,
    ## #   chin.fw3 <dbl>, chin.rv2 <dbl>, chin.rv4 <dbl>, upperchest.fw1 <dbl>,
    ## #   upperchest.fw3 <dbl>, upperchest.rv2 <dbl>, upperchest.rv4 <dbl>,
…
  mutate(hearing = as.factor(hearing)) %>%
  mutate(videogroup = as.factor(videogroup)) %>%
  mutate(aoagroup = as.factor(aoagroup)) %>%
  mutate(languagegroup = as.factor(languagegroup)) %>%
  mutate(maingroup = as.factor(maingroup)) %>%
  mutate(video = as.factor(video)) %>%
  mutate(story = as.factor(story)) %>%
  mutate(direction = as.factor(direction)) %>%
  select(id,participant,hearing,videogroup,aoagroup,languagegroup,maingroup,video,story,
         direction,age,selfrate,signyrs,aoasl,acc,forehead,eyes,mouth,chin,upperchest,
         midchest,lowerchest,belly,left,right)
data
```

    ## # A tibble: 196 x 25
    ##       id  participant hearing videogroup aoagroup languagegroup
    ##    <int>        <chr>  <fctr>     <fctr>   <fctr>        <fctr>
    ##  1     1      Jessika    Deaf    Group 1    Early      EarlyASL
    ##  2     1      Jessika    Deaf    Group 1    Early      EarlyASL
    ##  3     1      Jessika    Deaf    Group 1    Early      EarlyASL
    ##  4     1      Jessika    Deaf    Group 1    Early      EarlyASL
    ##  5     2        Derek    Deaf    Group 1    Early      EarlyASL
    ##  6     2        Derek    Deaf    Group 1    Early      EarlyASL
    ##  7     2        Derek    Deaf    Group 1    Early      EarlyASL
    ##  8     2        Derek    Deaf    Group 1    Early      EarlyASL
    ##  9     3 Vanessa_Deaf    Deaf    Group 2    Early      EarlyASL
    ## 10     3 Vanessa_Deaf    Deaf    Group 2    Early      EarlyASL
    ## # ... with 186 more rows, and 19 more variables: maingroup <fctr>,
    ## #   video <fctr>, story <fctr>, direction <fctr>, age <dbl>,
    ## #   selfrate <dbl>, signyrs <dbl>, aoasl <int>, acc <dbl>, forehead <dbl>,
    ## #   eyes <dbl>, mouth <dbl>, chin <dbl>, upperchest <dbl>, midchest <dbl>,
    ## #   lowerchest <dbl>, belly <dbl>, left <dbl>, right <dbl>
…
